 ___  ______ _____   _____         _         _____     _             _       _ 
 / _ \ | ___ \_   _| |_   _|       | |       |_   _|   | |           (_)     | |
/ /_\ \| |_/ / | |     | | ___  ___| |_ ___    | |_   _| |_ ___  _ __ _  __ _| |
|  _  ||  __/  | |     | |/ _ \/ __| __/ __|   | | | | | __/ _ \| '__| |/ _` | |
| | | || |    _| |_    | |  __/\__ \ |_\__ \   | | |_| | || (_) | |  | | (_| | |
\_| |_/\_|    \___/    \_/\___||___/\__|___/   \_/\__,_|\__\___/|_|  |_|\__,_|_|
                                                                                
                                                                       
Application loading. Please wait...

